{
  "dependencies": {
    "mssql1": {
      "resourceId": "/subscriptions/[parameters('subscriptionId')]/resourcegroups/[parameters('resourceGroupName')]/providers/Microsoft.Sql/servers/tareas-backend-apidbserver/databases/Tareas-Backend-Api_db",
      "type": "mssql.azure",
      "connectionId": "DevConnection",
      "secretStore": "AzureAppSettings"
    }
  }
}